<?xml version="1.0" encoding="UTF-8"?>
<svg xmlns="http://www.w3.org/2000/svg" xmlns:xlink="http://www.w3.org/1999/xlink" width="128pt" height="128pt" viewBox="0 0 128 128" version="1.1">
<defs>
<clipPath id="clip2">
  <rect x="0" y="0" width="128" height="128"/>
</clipPath>
<g id="surface7" clip-path="url(#clip2)">
<path style=" stroke:none;fill-rule:nonzero;fill:rgb(100%,100%,100%);fill-opacity:0.74902;" d="M 50 8 L 48.765625 22.75 C 44.089844 24.480469 39.738281 26.996094 35.90625 30.1875 L 22.5 23.875 L 8.5 48.125 L 20.671875 56.578125 C 20.238281 59.027344 20.011719 61.511719 20 64 C 20 66.496094 20.214844 68.992188 20.640625 71.453125 L 8.5 79.875 L 22.5 104.125 L 35.875 97.828125 C 39.722656 101.003906 44.082031 103.503906 48.765625 105.21875 L 50 120 L 78 120 L 79.234375 105.25 C 83.910156 103.515625 88.261719 101.003906 92.09375 97.8125 L 105.5 104.125 L 119.5 79.875 L 107.328125 71.421875 C 107.761719 68.972656 107.988281 66.488281 108 64 C 108 61.5 107.785156 59.007812 107.359375 56.546875 L 119.5 48.125 L 105.5 23.875 L 92.125 30.171875 C 88.277344 26.996094 83.917969 24.496094 79.234375 22.78125 L 78 8 Z M 64 48 C 72.835938 48 80 55.164062 80 64 C 80 72.835938 72.835938 80 64 80 C 55.164062 80 48 72.835938 48 64 C 48 55.164062 55.164062 48 64 48 Z M 64 48 "/>
</g>
<clipPath id="clip1">
  <rect x="0" y="0" width="128" height="128"/>
</clipPath>
<g id="surface9" clip-path="url(#clip1)">
<use xlink:href="#surface7"/>
</g>
</defs>
<g id="surface1">
<use xlink:href="#surface9"/>
</g>
</svg>
