<?xml version="1.0" encoding="UTF-8"?>
<svg xmlns="http://www.w3.org/2000/svg" xmlns:xlink="http://www.w3.org/1999/xlink" width="128pt" height="128pt" viewBox="0 0 128 128" version="1.1">
<defs>
<clipPath id="clip2">
  <rect x="0" y="0" width="128" height="128"/>
</clipPath>
<g id="surface7" clip-path="url(#clip2)">
<path style=" stroke:none;fill-rule:nonzero;fill:rgb(100%,100%,100%);fill-opacity:0.74902;" d="M 72 120.027344 L 56 120.027344 L 56 104.027344 L 72 104.027344 Z M 88.558594 58.027344 L 81.359375 65.386719 C 75.597656 71.226562 72 76.027344 72 88.027344 L 56 88.027344 L 56 84.027344 C 56 75.226562 59.597656 67.226562 65.359375 61.386719 L 75.277344 51.308594 C 78.238281 48.425781 80 44.425781 80 40.027344 C 80 31.226562 72.796875 24.027344 64 24.027344 C 55.199219 24.027344 48 31.226562 48 40.027344 L 32 40.027344 C 32 22.347656 46.320312 8.027344 64 8.027344 C 81.679688 8.027344 96 22.347656 96 40.027344 C 96 47.066406 93.117188 53.46875 88.558594 58.027344 Z M 88.558594 58.027344 "/>
</g>
<clipPath id="clip1">
  <rect x="0" y="0" width="128" height="128"/>
</clipPath>
<g id="surface9" clip-path="url(#clip1)">
<use xlink:href="#surface7"/>
</g>
</defs>
<g id="surface1">
<use xlink:href="#surface9"/>
</g>
</svg>
